<?xml version="1.0" encoding="UTF-8"?>
<svg width="35px" height="23px" viewBox="0 0 35 23" version="1.1" xmlns="http://www.w3.org/2000/svg" xmlns:xlink="http://www.w3.org/1999/xlink">
    <!-- Generator: sketchtool 56.3 (101010) - https://sketch.com -->
    <title>6ADCF1CA-521A-4F5B-8E5B-37FA0369DF4A</title>
    <desc>Created with sketchtool.</desc>
    <g id="Spezifikation" stroke="none" stroke-width="1" fill="none" fill-rule="evenodd">
        <g id="Bilder-&amp;-Assets" transform="translate(-433.000000, -445.000000)" fill="#000000" fill-rule="nonzero">
            <path d="M464.5625,461.015625 L464.992188,461.015625 L464.992188,458.359375 L464.328125,458.359375 C463.416662,458.359375 462.63542,458.033857 461.984375,457.382812 C461.33333,456.731768 461.007812,455.937505 461.007812,455 L461.007812,454.882812 L457.570312,454.335938 L438.546875,454.335938 L435.695312,455.3125 L435.695312,461.015625 L436.125,461.015625 C436.489585,460.234371 437.049475,459.596357 437.804688,459.101562 C438.5599,458.606768 439.406245,458.359375 440.34375,458.359375 C441.281255,458.359375 442.1276,458.606768 442.882812,459.101562 C443.638025,459.596357 444.197915,460.234371 444.5625,461.015625 L456.125,461.015625 C456.489585,460.234371 457.049475,459.596357 457.804688,459.101562 C458.5599,458.606768 459.406245,458.359375 460.34375,458.359375 C461.281255,458.359375 462.1276,458.606768 462.882812,459.101562 C463.638025,459.596357 464.197915,460.234371 464.5625,461.015625 Z M455.734375,463.671875 L444.953125,463.671875 C444.796874,464.817714 444.282556,465.774736 443.410156,466.542969 C442.537756,467.311202 441.515631,467.695312 440.34375,467.695312 C439.171869,467.695312 438.149744,467.311202 437.277344,466.542969 C436.404944,465.774736 435.890626,464.817714 435.734375,463.671875 L435.695312,463.671875 C434.9401,463.671875 434.302086,463.411461 433.78125,462.890625 C433.260414,462.369789 433,461.744795 433,461.015625 L433,455.3125 C433,454.73958 433.169269,454.218752 433.507812,453.75 C433.846356,453.281248 434.28906,452.95573 434.835938,452.773438 L437.335938,451.953125 L439.445312,446.679688 C439.653647,446.184893 439.979164,445.781252 440.421875,445.46875 C440.864586,445.156248 441.359372,445 441.90625,445 L452.6875,445 C453.442712,445 454.14583,445.201821 454.796875,445.605469 C455.44792,446.009117 455.942707,446.549476 456.28125,447.226562 L458.546875,451.796875 L464.289062,452.695312 C465.252609,452.825521 466.059893,453.268225 466.710938,454.023438 C467.361982,454.77865 467.6875,455.651037 467.6875,456.640625 L467.6875,461.015625 C467.6875,461.744795 467.427086,462.369789 466.90625,462.890625 C466.385414,463.411461 465.7474,463.671875 464.992188,463.671875 L464.953125,463.671875 C464.796874,464.817714 464.282556,465.774736 463.410156,466.542969 C462.537756,467.311202 461.515631,467.695312 460.34375,467.695312 C459.171869,467.695312 458.149744,467.311202 457.277344,466.542969 C456.404944,465.774736 455.890626,464.817714 455.734375,463.671875 Z M462.335938,455.078125 C462.361979,455.625003 462.570311,456.087238 462.960938,456.464844 C463.351564,456.84245 463.807289,457.03125 464.328125,457.03125 L464.992188,457.03125 L464.992188,456.640625 C464.992188,456.302082 464.888022,456.009116 464.679688,455.761719 C464.471353,455.514322 464.210939,455.364584 463.898438,455.3125 L462.335938,455.078125 Z M448.351562,453.007812 L447.6875,453.007812 L447.6875,447.695312 L441.90625,447.695312 L439.796875,453.007812 L448.351562,453.007812 Z M448.351562,453.007812 L456.203125,453.007812 L453.898438,448.398438 C453.768229,448.190103 453.598959,448.020834 453.390625,447.890625 C453.182291,447.760416 452.947918,447.695312 452.6875,447.695312 L449.015625,447.695312 L449.015625,453.007812 L448.351562,453.007812 Z M444.992188,457.03125 L444.992188,455.664062 L447.6875,455.664062 L447.6875,457.03125 L444.992188,457.03125 Z M440.34375,465 C440.890628,465 441.359373,464.804689 441.75,464.414062 C442.140627,464.023436 442.335938,463.55469 442.335938,463.007812 C442.335938,462.460935 442.140627,461.992189 441.75,461.601562 C441.359373,461.210936 440.890628,461.015625 440.34375,461.015625 C439.796872,461.015625 439.328127,461.210936 438.9375,461.601562 C438.546873,461.992189 438.351562,462.460935 438.351562,463.007812 C438.351562,463.55469 438.546873,464.023436 438.9375,464.414062 C439.328127,464.804689 439.796872,465 440.34375,465 Z M460.34375,465 C460.890628,465 461.359373,464.804689 461.75,464.414062 C462.140627,464.023436 462.335938,463.55469 462.335938,463.007812 C462.335938,462.460935 462.140627,461.992189 461.75,461.601562 C461.359373,461.210936 460.890628,461.015625 460.34375,461.015625 C459.796872,461.015625 459.328127,461.210936 458.9375,461.601562 C458.546873,461.992189 458.351562,462.460935 458.351562,463.007812 C458.351562,463.55469 458.546873,464.023436 458.9375,464.414062 C459.328127,464.804689 459.796872,465 460.34375,465 Z M440.34375,463.671875 C440.161457,463.671875 440.005209,463.606771 439.875,463.476562 C439.744791,463.346354 439.679688,463.190105 439.679688,463.007812 C439.679688,462.82552 439.744791,462.669271 439.875,462.539062 C440.005209,462.408854 440.161457,462.34375 440.34375,462.34375 C440.526043,462.34375 440.682291,462.408854 440.8125,462.539062 C440.942709,462.669271 441.007812,462.82552 441.007812,463.007812 C441.007812,463.190105 440.942709,463.346354 440.8125,463.476562 C440.682291,463.606771 440.526043,463.671875 440.34375,463.671875 Z M460.34375,463.671875 C460.161457,463.671875 460.005209,463.606771 459.875,463.476562 C459.744791,463.346354 459.679688,463.190105 459.679688,463.007812 C459.679688,462.82552 459.744791,462.669271 459.875,462.539062 C460.005209,462.408854 460.161457,462.34375 460.34375,462.34375 C460.526043,462.34375 460.682291,462.408854 460.8125,462.539062 C460.942709,462.669271 461.007812,462.82552 461.007812,463.007812 C461.007812,463.190105 460.942709,463.346354 460.8125,463.476562 C460.682291,463.606771 460.526043,463.671875 460.34375,463.671875 Z" id=""></path>
        </g>
    </g>
</svg>