<?xml version="1.0" encoding="UTF-8"?>
<svg width="24px" height="30px" viewBox="0 0 24 30" version="1.1" xmlns="http://www.w3.org/2000/svg" xmlns:xlink="http://www.w3.org/1999/xlink">
    <!-- Generator: sketchtool 56.3 (101010) - https://sketch.com -->
    <title>204CE768-6226-4944-80F1-805CF7CF08A3</title>
    <desc>Created with sketchtool.</desc>
    <g id="Spezifikation" stroke="none" stroke-width="1" fill="none" fill-rule="evenodd">
        <g id="Bilder-&amp;-Assets" transform="translate(-442.000000, -273.000000)" fill="#E2233E" fill-rule="nonzero">
            <path d="M454.96875,301.867188 L453.992188,303 L453.015625,301.867188 C450.984365,299.627593 449.304694,297.765632 447.976562,296.28125 C446.648431,294.796868 445.658857,293.677087 445.007812,292.921875 C444.044266,291.854161 443.302086,290.636726 442.78125,289.269531 C442.260414,287.902337 442,286.47657 442,284.992188 C442,283.325513 442.312497,281.763028 442.9375,280.304688 C443.562503,278.846347 444.415359,277.576828 445.496094,276.496094 C446.576828,275.415359 447.846347,274.562503 449.304688,273.9375 C450.763028,273.312497 452.325513,273 453.992188,273 C455.658862,273 457.221347,273.312497 458.679688,273.9375 C460.138028,274.562503 461.407547,275.415359 462.488281,276.496094 C463.569016,277.576828 464.421872,278.846347 465.046875,280.304688 C465.671878,281.763028 465.984375,283.325513 465.984375,284.992188 C465.984375,286.47657 465.723961,287.895827 465.203125,289.25 C464.682289,290.604173 463.95313,291.82812 463.015625,292.921875 C462.338538,293.677087 461.335944,294.796868 460.007812,296.28125 C458.679681,297.765632 457.00001,299.627593 454.96875,301.867188 Z M453.992188,288.976562 C455.085943,288.976562 456.023434,288.585941 456.804688,287.804688 C457.585941,287.023434 457.976562,286.085943 457.976562,284.992188 C457.976562,283.898432 457.585941,282.960941 456.804688,282.179688 C456.023434,281.398434 455.085943,281.007812 453.992188,281.007812 C452.898432,281.007812 451.960941,281.398434 451.179688,282.179688 C450.398434,282.960941 450.007812,283.898432 450.007812,284.992188 C450.007812,286.085943 450.398434,287.023434 451.179688,287.804688 C451.960941,288.585941 452.898432,288.976562 453.992188,288.976562 Z" id="l"></path>
        </g>
    </g>
</svg>
