<?xml version="1.0" encoding="UTF-8"?>
<svg width="22px" height="22px" viewBox="0 0 22 22" version="1.1" xmlns="http://www.w3.org/2000/svg" xmlns:xlink="http://www.w3.org/1999/xlink">
    <!-- Generator: sketchtool 56.2 (101010) - https://sketch.com -->
    <title>7795C7A9-9613-4B64-9B7E-469FB16C3530</title>
    <desc>Created with sketchtool.</desc>
    <g id="Spezifikation" stroke="none" stroke-width="1" fill="none" fill-rule="evenodd">
        <g id="Bilder-&amp;-Assets" transform="translate(-390.000000, -380.000000)">
            <g id="Phone-Copy" transform="translate(381.000000, 371.000000)">
                <circle id="Oval" cx="20" cy="20" r="20"></circle>
                <path d="M25.7128906,21.9257812 L29.6972656,24.7675781 C30.0292985,25.0019543 30.268554,25.2998029 30.4150391,25.6611328 C30.5615242,26.0224627 30.5957035,26.3984355 30.5175781,26.7890625 C30.4199214,27.2187521 30.2685557,27.6289043 30.0634766,28.0195313 C29.8583974,28.4101582 29.5800799,28.7714827 29.2285156,29.1035156 C28.798826,29.5527366 28.3154324,29.8896473 27.7783203,30.1142578 C27.2412083,30.3388683 26.6699249,30.4511719 26.0644531,30.4511719 C25.2831992,30.4511719 24.4726604,30.32422 23.6328125,30.0703125 C22.7929646,29.8359363 21.9335981,29.4697291 21.0546875,28.9716797 C20.1757769,28.4736303 19.2675828,27.8535193 18.3300781,27.1113281 C17.3925734,26.3691369 16.4355518,25.500005 15.4589844,24.5039062 C14.4628856,23.5273389 13.5937537,22.5703172 12.8515625,21.6328125 C12.1093713,20.6953078 11.4892603,19.7871138 10.9912109,18.9082031 C10.4931616,18.0292925 10.1269543,17.1699261 9.89257812,16.3300781 C9.63867061,15.4902302 9.51171875,14.6796914 9.51171875,13.8984375 C9.51171875,13.2929657 9.62402231,12.7216824 9.84863281,12.1845703 C10.0732433,11.6474583 10.410154,11.1542991 10.859375,10.7050781 C11.1914079,10.3730452 11.5527324,10.0996104 11.9433594,9.88476562 C12.3339863,9.6699208 12.7441385,9.52343789 13.1738281,9.4453125 C13.5644551,9.36718711 13.9404279,9.40136646 14.3017578,9.54785156 C14.6630877,9.69433667 14.9609363,9.92382656 15.1953125,10.2363281 L18.0371094,14.25 C18.2519542,14.5429702 18.3740233,14.8749981 18.4033203,15.2460938 C18.4326173,15.6171894 18.3691414,15.9687483 18.2128906,16.3007812 L17.3632812,17.9414062 L22.0214844,22.5703125 L23.6621094,21.75 C23.9941423,21.5937492 24.3457013,21.5302733 24.7167969,21.5595703 C25.0878925,21.5888673 25.4199204,21.7109364 25.7128906,21.9257812 Z M22.9003906,24.3867188 C22.529295,24.5625009 22.1289084,24.6162113 21.6992188,24.5478516 C21.2695291,24.4794918 20.8984391,24.2988296 20.5859375,24.0058594 L15.9570312,19.3476562 C15.664061,19.054686 15.4833988,18.6933615 15.4150391,18.2636719 C15.3466793,17.8339822 15.4003897,17.4335956 15.5761719,17.0625 L16.3964844,15.3925781 L13.5546875,11.4082031 C13.3203113,11.4472658 13.0957042,11.5302728 12.8808594,11.6572266 C12.6660146,11.7841803 12.4609385,11.9453115 12.265625,12.140625 C12.0117175,12.3945325 11.8212897,12.6679673 11.6943359,12.9609375 C11.5673822,13.2539077 11.5039062,13.5664046 11.5039062,13.8984375 C11.5039062,14.5234406 11.6113271,15.1874965 11.8261719,15.890625 C12.060548,16.5937535 12.3974587,17.3261681 12.8369141,18.0878906 C13.2763694,18.8496132 13.8378872,19.6503864 14.5214844,20.4902344 C15.1855502,21.3300823 15.9667924,22.1992143 16.8652344,23.0976562 C17.7636764,23.9960982 18.6328083,24.7773404 19.4726562,25.4414062 C20.3125042,26.1250034 21.1132774,26.6865212 21.875,27.1259766 C22.6367226,27.5654319 23.3691371,27.9023426 24.0722656,28.1367188 C24.7753941,28.3515636 25.43945,28.4589844 26.0644531,28.4589844 C26.396486,28.4589844 26.7089829,28.3955084 27.0019531,28.2685547 C27.2949233,28.1416009 27.5683581,27.9511731 27.8222656,27.6972656 C28.0175791,27.5019521 28.1738275,27.2968761 28.2910156,27.0820312 C28.4082037,26.8671864 28.4960935,26.6425793 28.5546875,26.4082031 L24.5410156,23.5371094 L22.9003906,24.3867188 Z" id="p" fill="#DA2323" fill-rule="nonzero"></path>
            </g>
        </g>
    </g>
</svg>