<?xml version="1.0" encoding="UTF-8"?>
<svg width="14px" height="16px" viewBox="0 0 14 16" version="1.1" xmlns="http://www.w3.org/2000/svg" xmlns:xlink="http://www.w3.org/1999/xlink">
    <!-- Generator: sketchtool 58 (101010) - https://sketch.com -->
    <title>9973945A-E9DE-41AF-89D1-C4208E1609A4@2</title>
    <desc>Created with sketchtool.</desc>
    <g id="Spezifikation" stroke="none" stroke-width="1" fill="none" fill-rule="evenodd">
        <g id="Bilder-&amp;-Assets" transform="translate(-39.000000, -825.000000)" fill="#000000" fill-rule="nonzero">
            <polygon id="t" points="44.59375 832.992188 38.9394531 827.337891 40.3457031 825.931641 46 831.585938 51.6542969 825.931641 53.0605469 827.337891 47.40625 832.992188 53.0605469 838.646484 51.6542969 840.082031 46 834.427734 40.3457031 840.082031 38.9394531 838.646484"></polygon>
        </g>
    </g>
</svg>